

WindowsBuildLabEx                                       : 17763.1.amd64fre.rs5_release.180914-1434
WindowsCurrentVersion                                   : 6.3
WindowsEditionId                                        : ServerDatacenter
WindowsInstallationType                                 : Server
WindowsInstallDateFromRegistry                          : 11/26/2021 6:35:35 PM
WindowsProductId                                        : 00430-00000-00000-AA144
WindowsProductName                                      : Windows Server 2019 Datacenter
WindowsRegisteredOrganization                           : 
WindowsRegisteredOwner                                  : 
WindowsSystemRoot                                       : C:\Windows
WindowsVersion                                          : 1809
BiosCharacteristics                                     : {3, 9, 15, 16...}
BiosBIOSVersion                                         : {VRTUAL - 1, Hyper-V UEFI Release v4.1, Microsoft - 100032}
BiosBuildNumber                                         : 
BiosCaption                                             : Hyper-V UEFI Release v4.1
BiosCodeSet                                             : 
BiosCurrentLanguage                                     : 
BiosDescription                                         : Hyper-V UEFI Release v4.1
BiosEmbeddedControllerMajorVersion                      : 255
BiosEmbeddedControllerMinorVersion                      : 255
BiosFirmwareType                                        : Uefi
BiosIdentificationCode                                  : 
BiosInstallableLanguages                                : 
BiosInstallDate                                         : 
BiosLanguageEdition                                     : 
BiosListOfLanguages                                     : 
BiosManufacturer                                        : Microsoft Corporation
BiosName                                                : Hyper-V UEFI Release v4.1
BiosOtherTargetOS                                       : 
BiosPrimaryBIOS                                         : True
BiosReleaseDate                                         : 7/22/2021 3:00:00 AM
BiosSeralNumber                                         : 0000-0017-0080-2864-4095-1836-17
BiosSMBIOSBIOSVersion                                   : Hyper-V UEFI Release v4.1
BiosSMBIOSMajorVersion                                  : 3
BiosSMBIOSMinorVersion                                  : 1
BiosSMBIOSPresent                                       : True
BiosSoftwareElementState                                : Running
BiosStatus                                              : OK
BiosSystemBiosMajorVersion                              : 4
BiosSystemBiosMinorVersion                              : 1
BiosTargetOperatingSystem                               : 0
BiosVersion                                             : VRTUAL - 1
CsAdminPasswordStatus                                   : Unknown
CsAutomaticManagedPagefile                              : False
CsAutomaticResetBootOption                              : True
CsAutomaticResetCapability                              : True
CsBootOptionOnLimit                                     : 
CsBootOptionOnWatchDog                                  : 
CsBootROMSupported                                      : True
CsBootStatus                                            : {0, 0, 0, 127...}
CsBootupState                                           : Normal boot
CsCaption                                               : APPAD1
CsChassisBootupState                                    : Safe
CsChassisSKUNumber                                      : Virtual Machine
CsCurrentTimeZone                                       : 180
CsDaylightInEffect                                      : True
CsDescription                                           : AT/AT COMPATIBLE
CsDNSHostName                                           : APPAD1
CsDomain                                                : adaudit77.lt
CsDomainRole                                            : MemberServer
CsEnableDaylightSavingsTime                             : True
CsFrontPanelResetStatus                                 : Unknown
CsHypervisorPresent                                     : True
CsInfraredSupported                                     : False
CsInitialLoadInfo                                       : 
CsInstallDate                                           : 
CsKeyboardPasswordStatus                                : Unknown
CsLastLoadInfo                                          : 
CsManufacturer                                          : Microsoft Corporation
CsModel                                                 : Virtual Machine
CsName                                                  : APPAD1
CsNetworkAdapters                                       : {Ethernet}
CsNetworkServerModeEnabled                              : True
CsNumberOfLogicalProcessors                             : 4
CsNumberOfProcessors                                    : 1
CsProcessors                                            : {Intel(R) Xeon(R) Platinum 8370C CPU @ 2.80GHz}
CsOEMStringArray                                        : {[MS_VM_CERT/SHA1/9b80ca0d5dd061ec9da4e494f4c3fd1196270c22], 
                                                          00000000000000000000000000000000, To be filled by OEM}
CsPartOfDomain                                          : True
CsPauseAfterReset                                       : -1
CsPCSystemType                                          : Desktop
CsPCSystemTypeEx                                        : Desktop
CsPowerManagementCapabilities                           : 
CsPowerManagementSupported                              : 
CsPowerOnPasswordStatus                                 : Unknown
CsPowerState                                            : Unknown
CsPowerSupplyState                                      : Safe
CsPrimaryOwnerContact                                   : 
CsPrimaryOwnerName                                      : 
CsResetCapability                                       : Other
CsResetCount                                            : -1
CsResetLimit                                            : -1
CsRoles                                                 : {LM_Workstation, LM_Server, NT, Server_NT}
CsStatus                                                : OK
CsSupportContactDescription                             : 
CsSystemFamily                                          : Virtual Machine
CsSystemSKUNumber                                       : None
CsSystemType                                            : x64-based PC
CsThermalState                                          : Safe
CsTotalPhysicalMemory                                   : 17178763264
CsPhyicallyInstalledMemory                              : 
CsUserName                                              : 
CsWakeUpType                                            : PowerSwitch
CsWorkgroup                                             : 
OsName                                                  : Microsoft Windows Server 2019 Datacenter
OsType                                                  : WINNT
OsOperatingSystemSKU                                    : DatacenterServerEdition
OsVersion                                               : 10.0.17763
OsCSDVersion                                            : 
OsBuildNumber                                           : 17763
OsHotFixes                                              : {KB5004335, KB5004424, KB5007206, KB5006754}
OsBootDevice                                            : \Device\HarddiskVolume3
OsSystemDevice                                          : \Device\HarddiskVolume4
OsSystemDirectory                                       : C:\Windows\system32
OsSystemDrive                                           : C:
OsWindowsDirectory                                      : C:\Windows
OsCountryCode                                           : 1
OsCurrentTimeZone                                       : 180
OsLocaleID                                              : 0409
OsLocale                                                : en-US
OsLocalDateTime                                         : 4/26/2022 5:00:40 PM
OsLastBootUpTime                                        : 4/26/2022 4:56:07 PM
OsUptime                                                : 00:04:32.6911353
OsBuildType                                             : Multiprocessor Free
OsCodeSet                                               : 1252
OsDataExecutionPreventionAvailable                      : True
OsDataExecutionPrevention32BitApplications              : True
OsDataExecutionPreventionDrivers                        : True
OsDataExecutionPreventionSupportPolicy                  : OptOut
OsDebug                                                 : False
OsDistributed                                           : False
OsEncryptionLevel                                       : 256
OsForegroundApplicationBoost                            : Maximum
OsTotalVisibleMemorySize                                : 16776136
OsFreePhysicalMemory                                    : 13687672
OsTotalVirtualMemorySize                                : 20184008
OsFreeVirtualMemory                                     : 16812692
OsInUseVirtualMemory                                    : 3371316
OsTotalSwapSpaceSize                                    : 
OsSizeStoredInPagingFiles                               : 3407872
OsFreeSpaceInPagingFiles                                : 3407872
OsPagingFiles                                           : {D:\pagefile.sys}
OsHardwareAbstractionLayer                              : 10.0.17763.2061
OsInstallDate                                           : 11/26/2021 8:35:35 PM
OsManufacturer                                          : Microsoft Corporation
OsMaxNumberOfProcesses                                  : 4294967295
OsMaxProcessMemorySize                                  : 137438953344
OsMuiLanguages                                          : {en-US}
OsNumberOfLicensedUsers                                 : 0
OsNumberOfProcesses                                     : 150
OsNumberOfUsers                                         : 10
OsOrganization                                          : 
OsArchitecture                                          : 64-bit
OsLanguage                                              : en-US
OsProductSuites                                         : {TerminalServices, DatacenterEdition, 
                                                          TerminalServicesSingleSession}
OsOtherTypeDescription                                  : 
OsPAEEnabled                                            : 
OsPortableOperatingSystem                               : False
OsPrimary                                               : True
OsProductType                                           : Server
OsRegisteredUser                                        : 
OsSerialNumber                                          : 00430-00000-00000-AA144
OsServicePackMajorVersion                               : 0
OsServicePackMinorVersion                               : 0
OsStatus                                                : OK
OsSuites                                                : {TerminalServices, DatacenterEdition, 
                                                          TerminalServicesSingleSession}
OsServerLevel                                           : FullServer
KeyboardLayout                                          : en-US
TimeZone                                                : (UTC+02:00) Helsinki, Kyiv, Riga, Sofia, Tallinn, Vilnius
LogonServer                                             : \\DCAD2
PowerPlatformRole                                       : Desktop
HyperVisorPresent                                       : True
HyperVRequirementDataExecutionPreventionAvailable       : 
HyperVRequirementSecondLevelAddressTranslation          : 
HyperVRequirementVirtualizationFirmwareEnabled          : 
HyperVRequirementVMMonitorModeExtensions                : 
DeviceGuardSmartStatus                                  : Off
DeviceGuardRequiredSecurityProperties                   : 
DeviceGuardAvailableSecurityProperties                  : 
DeviceGuardSecurityServicesConfigured                   : 
DeviceGuardSecurityServicesRunning                      : 
DeviceGuardCodeIntegrityPolicyEnforcementStatus         : 
DeviceGuardUserModeCodeIntegrityPolicyEnforcementStatus : 





WindowsBuildLabEx                                       : 17763.1.amd64fre.rs5_release.180914-1434
WindowsCurrentVersion                                   : 6.3
WindowsEditionId                                        : ServerDatacenter
WindowsInstallationType                                 : Server
WindowsInstallDateFromRegistry                          : 11/26/2021 6:35:35 PM
WindowsProductId                                        : 00430-00000-00000-AA144
WindowsProductName                                      : Windows Server 2019 Datacenter
WindowsRegisteredOrganization                           : 
WindowsRegisteredOwner                                  : 
WindowsSystemRoot                                       : C:\Windows
WindowsVersion                                          : 1809
BiosCharacteristics                                     : {3, 9, 15, 16...}
BiosBIOSVersion                                         : {VRTUAL - 1, Hyper-V UEFI Release v4.1, Microsoft - 100032}
BiosBuildNumber                                         : 
BiosCaption                                             : Hyper-V UEFI Release v4.1
BiosCodeSet                                             : 
BiosCurrentLanguage                                     : 
BiosDescription                                         : Hyper-V UEFI Release v4.1
BiosEmbeddedControllerMajorVersion                      : 255
BiosEmbeddedControllerMinorVersion                      : 255
BiosFirmwareType                                        : Uefi
BiosIdentificationCode                                  : 
BiosInstallableLanguages                                : 
BiosInstallDate                                         : 
BiosLanguageEdition                                     : 
BiosListOfLanguages                                     : 
BiosManufacturer                                        : Microsoft Corporation
BiosName                                                : Hyper-V UEFI Release v4.1
BiosOtherTargetOS                                       : 
BiosPrimaryBIOS                                         : True
BiosReleaseDate                                         : 7/22/2021 3:00:00 AM
BiosSeralNumber                                         : 0000-0017-0080-2864-4095-1836-17
BiosSMBIOSBIOSVersion                                   : Hyper-V UEFI Release v4.1
BiosSMBIOSMajorVersion                                  : 3
BiosSMBIOSMinorVersion                                  : 1
BiosSMBIOSPresent                                       : True
BiosSoftwareElementState                                : Running
BiosStatus                                              : OK
BiosSystemBiosMajorVersion                              : 4
BiosSystemBiosMinorVersion                              : 1
BiosTargetOperatingSystem                               : 0
BiosVersion                                             : VRTUAL - 1
CsAdminPasswordStatus                                   : Unknown
CsAutomaticManagedPagefile                              : False
CsAutomaticResetBootOption                              : True
CsAutomaticResetCapability                              : True
CsBootOptionOnLimit                                     : 
CsBootOptionOnWatchDog                                  : 
CsBootROMSupported                                      : True
CsBootStatus                                            : {0, 0, 0, 127...}
CsBootupState                                           : Normal boot
CsCaption                                               : APPAD1
CsChassisBootupState                                    : Safe
CsChassisSKUNumber                                      : Virtual Machine
CsCurrentTimeZone                                       : 180
CsDaylightInEffect                                      : True
CsDescription                                           : AT/AT COMPATIBLE
CsDNSHostName                                           : APPAD1
CsDomain                                                : adaudit77.lt
CsDomainRole                                            : MemberServer
CsEnableDaylightSavingsTime                             : True
CsFrontPanelResetStatus                                 : Unknown
CsHypervisorPresent                                     : True
CsInfraredSupported                                     : False
CsInitialLoadInfo                                       : 
CsInstallDate                                           : 
CsKeyboardPasswordStatus                                : Unknown
CsLastLoadInfo                                          : 
CsManufacturer                                          : Microsoft Corporation
CsModel                                                 : Virtual Machine
CsName                                                  : APPAD1
CsNetworkAdapters                                       : {Ethernet}
CsNetworkServerModeEnabled                              : True
CsNumberOfLogicalProcessors                             : 4
CsNumberOfProcessors                                    : 1
CsProcessors                                            : {Intel(R) Xeon(R) Platinum 8370C CPU @ 2.80GHz}
CsOEMStringArray                                        : {[MS_VM_CERT/SHA1/9b80ca0d5dd061ec9da4e494f4c3fd1196270c22], 
                                                          00000000000000000000000000000000, To be filled by OEM}
CsPartOfDomain                                          : True
CsPauseAfterReset                                       : -1
CsPCSystemType                                          : Desktop
CsPCSystemTypeEx                                        : Desktop
CsPowerManagementCapabilities                           : 
CsPowerManagementSupported                              : 
CsPowerOnPasswordStatus                                 : Unknown
CsPowerState                                            : Unknown
CsPowerSupplyState                                      : Safe
CsPrimaryOwnerContact                                   : 
CsPrimaryOwnerName                                      : 
CsResetCapability                                       : Other
CsResetCount                                            : -1
CsResetLimit                                            : -1
CsRoles                                                 : {LM_Workstation, LM_Server, NT, Server_NT}
CsStatus                                                : OK
CsSupportContactDescription                             : 
CsSystemFamily                                          : Virtual Machine
CsSystemSKUNumber                                       : None
CsSystemType                                            : x64-based PC
CsThermalState                                          : Safe
CsTotalPhysicalMemory                                   : 17178763264
CsPhyicallyInstalledMemory                              : 
CsUserName                                              : 
CsWakeUpType                                            : PowerSwitch
CsWorkgroup                                             : 
OsName                                                  : Microsoft Windows Server 2019 Datacenter
OsType                                                  : WINNT
OsOperatingSystemSKU                                    : DatacenterServerEdition
OsVersion                                               : 10.0.17763
OsCSDVersion                                            : 
OsBuildNumber                                           : 17763
OsHotFixes                                              : {KB5004335, KB5004424, KB5007206, KB5006754}
OsBootDevice                                            : \Device\HarddiskVolume3
OsSystemDevice                                          : \Device\HarddiskVolume4
OsSystemDirectory                                       : C:\Windows\system32
OsSystemDrive                                           : C:
OsWindowsDirectory                                      : C:\Windows
OsCountryCode                                           : 1
OsCurrentTimeZone                                       : 180
OsLocaleID                                              : 0409
OsLocale                                                : en-US
OsLocalDateTime                                         : 4/27/2022 11:22:12 AM
OsLastBootUpTime                                        : 4/26/2022 4:56:07 PM
OsUptime                                                : 18:26:04.6934431
OsBuildType                                             : Multiprocessor Free
OsCodeSet                                               : 1252
OsDataExecutionPreventionAvailable                      : True
OsDataExecutionPrevention32BitApplications              : True
OsDataExecutionPreventionDrivers                        : True
OsDataExecutionPreventionSupportPolicy                  : OptOut
OsDebug                                                 : False
OsDistributed                                           : False
OsEncryptionLevel                                       : 256
OsForegroundApplicationBoost                            : Maximum
OsTotalVisibleMemorySize                                : 16776136
OsFreePhysicalMemory                                    : 13062232
OsTotalVirtualMemorySize                                : 20184008
OsFreeVirtualMemory                                     : 16123876
OsInUseVirtualMemory                                    : 4060132
OsTotalSwapSpaceSize                                    : 
OsSizeStoredInPagingFiles                               : 3407872
OsFreeSpaceInPagingFiles                                : 3407872
OsPagingFiles                                           : {D:\pagefile.sys}
OsHardwareAbstractionLayer                              : 10.0.17763.2061
OsInstallDate                                           : 11/26/2021 8:35:35 PM
OsManufacturer                                          : Microsoft Corporation
OsMaxNumberOfProcesses                                  : 4294967295
OsMaxProcessMemorySize                                  : 137438953344
OsMuiLanguages                                          : {en-US}
OsNumberOfLicensedUsers                                 : 0
OsNumberOfProcesses                                     : 150
OsNumberOfUsers                                         : 10
OsOrganization                                          : 
OsArchitecture                                          : 64-bit
OsLanguage                                              : en-US
OsProductSuites                                         : {TerminalServices, DatacenterEdition, 
                                                          TerminalServicesSingleSession}
OsOtherTypeDescription                                  : 
OsPAEEnabled                                            : 
OsPortableOperatingSystem                               : False
OsPrimary                                               : True
OsProductType                                           : Server
OsRegisteredUser                                        : 
OsSerialNumber                                          : 00430-00000-00000-AA144
OsServicePackMajorVersion                               : 0
OsServicePackMinorVersion                               : 0
OsStatus                                                : OK
OsSuites                                                : {TerminalServices, DatacenterEdition, 
                                                          TerminalServicesSingleSession}
OsServerLevel                                           : FullServer
KeyboardLayout                                          : en-US
TimeZone                                                : (UTC+02:00) Helsinki, Kyiv, Riga, Sofia, Tallinn, Vilnius
LogonServer                                             : \\DCAD2
PowerPlatformRole                                       : Desktop
HyperVisorPresent                                       : True
HyperVRequirementDataExecutionPreventionAvailable       : 
HyperVRequirementSecondLevelAddressTranslation          : 
HyperVRequirementVirtualizationFirmwareEnabled          : 
HyperVRequirementVMMonitorModeExtensions                : 
DeviceGuardSmartStatus                                  : Off
DeviceGuardRequiredSecurityProperties                   : 
DeviceGuardAvailableSecurityProperties                  : 
DeviceGuardSecurityServicesConfigured                   : 
DeviceGuardSecurityServicesRunning                      : 
DeviceGuardCodeIntegrityPolicyEnforcementStatus         : 
DeviceGuardUserModeCodeIntegrityPolicyEnforcementStatus : 





WindowsBuildLabEx                                       : 17763.1.amd64fre.rs5_release.180914-1434
WindowsCurrentVersion                                   : 6.3
WindowsEditionId                                        : ServerDatacenter
WindowsInstallationType                                 : Server
WindowsInstallDateFromRegistry                          : 11/26/2021 6:35:35 PM
WindowsProductId                                        : 00430-00000-00000-AA144
WindowsProductName                                      : Windows Server 2019 Datacenter
WindowsRegisteredOrganization                           : 
WindowsRegisteredOwner                                  : 
WindowsSystemRoot                                       : C:\Windows
WindowsVersion                                          : 1809
BiosCharacteristics                                     : {3, 9, 15, 16...}
BiosBIOSVersion                                         : {VRTUAL - 1, Hyper-V UEFI Release v4.1, Microsoft - 100032}
BiosBuildNumber                                         : 
BiosCaption                                             : Hyper-V UEFI Release v4.1
BiosCodeSet                                             : 
BiosCurrentLanguage                                     : 
BiosDescription                                         : Hyper-V UEFI Release v4.1
BiosEmbeddedControllerMajorVersion                      : 255
BiosEmbeddedControllerMinorVersion                      : 255
BiosFirmwareType                                        : Uefi
BiosIdentificationCode                                  : 
BiosInstallableLanguages                                : 
BiosInstallDate                                         : 
BiosLanguageEdition                                     : 
BiosListOfLanguages                                     : 
BiosManufacturer                                        : Microsoft Corporation
BiosName                                                : Hyper-V UEFI Release v4.1
BiosOtherTargetOS                                       : 
BiosPrimaryBIOS                                         : True
BiosReleaseDate                                         : 7/22/2021 3:00:00 AM
BiosSeralNumber                                         : 0000-0017-0080-2864-4095-1836-17
BiosSMBIOSBIOSVersion                                   : Hyper-V UEFI Release v4.1
BiosSMBIOSMajorVersion                                  : 3
BiosSMBIOSMinorVersion                                  : 1
BiosSMBIOSPresent                                       : True
BiosSoftwareElementState                                : Running
BiosStatus                                              : OK
BiosSystemBiosMajorVersion                              : 4
BiosSystemBiosMinorVersion                              : 1
BiosTargetOperatingSystem                               : 0
BiosVersion                                             : VRTUAL - 1
CsAdminPasswordStatus                                   : Unknown
CsAutomaticManagedPagefile                              : False
CsAutomaticResetBootOption                              : True
CsAutomaticResetCapability                              : True
CsBootOptionOnLimit                                     : 
CsBootOptionOnWatchDog                                  : 
CsBootROMSupported                                      : True
CsBootStatus                                            : {0, 0, 0, 127...}
CsBootupState                                           : Normal boot
CsCaption                                               : APPAD1
CsChassisBootupState                                    : Safe
CsChassisSKUNumber                                      : Virtual Machine
CsCurrentTimeZone                                       : 180
CsDaylightInEffect                                      : True
CsDescription                                           : AT/AT COMPATIBLE
CsDNSHostName                                           : APPAD1
CsDomain                                                : adaudit77.lt
CsDomainRole                                            : MemberServer
CsEnableDaylightSavingsTime                             : True
CsFrontPanelResetStatus                                 : Unknown
CsHypervisorPresent                                     : True
CsInfraredSupported                                     : False
CsInitialLoadInfo                                       : 
CsInstallDate                                           : 
CsKeyboardPasswordStatus                                : Unknown
CsLastLoadInfo                                          : 
CsManufacturer                                          : Microsoft Corporation
CsModel                                                 : Virtual Machine
CsName                                                  : APPAD1
CsNetworkAdapters                                       : {Ethernet}
CsNetworkServerModeEnabled                              : True
CsNumberOfLogicalProcessors                             : 4
CsNumberOfProcessors                                    : 1
CsProcessors                                            : {Intel(R) Xeon(R) Platinum 8370C CPU @ 2.80GHz}
CsOEMStringArray                                        : {[MS_VM_CERT/SHA1/9b80ca0d5dd061ec9da4e494f4c3fd1196270c22], 
                                                          00000000000000000000000000000000, To be filled by OEM}
CsPartOfDomain                                          : True
CsPauseAfterReset                                       : -1
CsPCSystemType                                          : Desktop
CsPCSystemTypeEx                                        : Desktop
CsPowerManagementCapabilities                           : 
CsPowerManagementSupported                              : 
CsPowerOnPasswordStatus                                 : Unknown
CsPowerState                                            : Unknown
CsPowerSupplyState                                      : Safe
CsPrimaryOwnerContact                                   : 
CsPrimaryOwnerName                                      : 
CsResetCapability                                       : Other
CsResetCount                                            : -1
CsResetLimit                                            : -1
CsRoles                                                 : {LM_Workstation, LM_Server, NT, Server_NT}
CsStatus                                                : OK
CsSupportContactDescription                             : 
CsSystemFamily                                          : Virtual Machine
CsSystemSKUNumber                                       : None
CsSystemType                                            : x64-based PC
CsThermalState                                          : Safe
CsTotalPhysicalMemory                                   : 17178763264
CsPhyicallyInstalledMemory                              : 
CsUserName                                              : 
CsWakeUpType                                            : PowerSwitch
CsWorkgroup                                             : 
OsName                                                  : Microsoft Windows Server 2019 Datacenter
OsType                                                  : WINNT
OsOperatingSystemSKU                                    : DatacenterServerEdition
OsVersion                                               : 10.0.17763
OsCSDVersion                                            : 
OsBuildNumber                                           : 17763
OsHotFixes                                              : {KB5004335, KB5004424, KB5007206, KB5006754}
OsBootDevice                                            : \Device\HarddiskVolume3
OsSystemDevice                                          : \Device\HarddiskVolume4
OsSystemDirectory                                       : C:\Windows\system32
OsSystemDrive                                           : C:
OsWindowsDirectory                                      : C:\Windows
OsCountryCode                                           : 1
OsCurrentTimeZone                                       : 180
OsLocaleID                                              : 0409
OsLocale                                                : en-US
OsLocalDateTime                                         : 4/27/2022 1:28:31 PM
OsLastBootUpTime                                        : 4/26/2022 4:56:07 PM
OsUptime                                                : 20:32:24.4952042
OsBuildType                                             : Multiprocessor Free
OsCodeSet                                               : 1252
OsDataExecutionPreventionAvailable                      : True
OsDataExecutionPrevention32BitApplications              : True
OsDataExecutionPreventionDrivers                        : True
OsDataExecutionPreventionSupportPolicy                  : OptOut
OsDebug                                                 : False
OsDistributed                                           : False
OsEncryptionLevel                                       : 256
OsForegroundApplicationBoost                            : Maximum
OsTotalVisibleMemorySize                                : 16776136
OsFreePhysicalMemory                                    : 12905248
OsTotalVirtualMemorySize                                : 20184008
OsFreeVirtualMemory                                     : 15947412
OsInUseVirtualMemory                                    : 4236596
OsTotalSwapSpaceSize                                    : 
OsSizeStoredInPagingFiles                               : 3407872
OsFreeSpaceInPagingFiles                                : 3407872
OsPagingFiles                                           : {D:\pagefile.sys}
OsHardwareAbstractionLayer                              : 10.0.17763.2061
OsInstallDate                                           : 11/26/2021 8:35:35 PM
OsManufacturer                                          : Microsoft Corporation
OsMaxNumberOfProcesses                                  : 4294967295
OsMaxProcessMemorySize                                  : 137438953344
OsMuiLanguages                                          : {en-US}
OsNumberOfLicensedUsers                                 : 0
OsNumberOfProcesses                                     : 151
OsNumberOfUsers                                         : 10
OsOrganization                                          : 
OsArchitecture                                          : 64-bit
OsLanguage                                              : en-US
OsProductSuites                                         : {TerminalServices, DatacenterEdition, 
                                                          TerminalServicesSingleSession}
OsOtherTypeDescription                                  : 
OsPAEEnabled                                            : 
OsPortableOperatingSystem                               : False
OsPrimary                                               : True
OsProductType                                           : Server
OsRegisteredUser                                        : 
OsSerialNumber                                          : 00430-00000-00000-AA144
OsServicePackMajorVersion                               : 0
OsServicePackMinorVersion                               : 0
OsStatus                                                : OK
OsSuites                                                : {TerminalServices, DatacenterEdition, 
                                                          TerminalServicesSingleSession}
OsServerLevel                                           : FullServer
KeyboardLayout                                          : en-US
TimeZone                                                : (UTC+02:00) Helsinki, Kyiv, Riga, Sofia, Tallinn, Vilnius
LogonServer                                             : \\DCAD2
PowerPlatformRole                                       : Desktop
HyperVisorPresent                                       : True
HyperVRequirementDataExecutionPreventionAvailable       : 
HyperVRequirementSecondLevelAddressTranslation          : 
HyperVRequirementVirtualizationFirmwareEnabled          : 
HyperVRequirementVMMonitorModeExtensions                : 
DeviceGuardSmartStatus                                  : Off
DeviceGuardRequiredSecurityProperties                   : 
DeviceGuardAvailableSecurityProperties                  : 
DeviceGuardSecurityServicesConfigured                   : 
DeviceGuardSecurityServicesRunning                      : 
DeviceGuardCodeIntegrityPolicyEnforcementStatus         : 
DeviceGuardUserModeCodeIntegrityPolicyEnforcementStatus : 





WindowsBuildLabEx                                       : 17763.1.amd64fre.rs5_release.180914-1434
WindowsCurrentVersion                                   : 6.3
WindowsEditionId                                        : ServerDatacenter
WindowsInstallationType                                 : Server
WindowsInstallDateFromRegistry                          : 11/26/2021 6:35:35 PM
WindowsProductId                                        : 00430-00000-00000-AA144
WindowsProductName                                      : Windows Server 2019 Datacenter
WindowsRegisteredOrganization                           : 
WindowsRegisteredOwner                                  : 
WindowsSystemRoot                                       : C:\Windows
WindowsVersion                                          : 1809
BiosCharacteristics                                     : {3, 9, 15, 16...}
BiosBIOSVersion                                         : {VRTUAL - 1, Hyper-V UEFI Release v4.1, Microsoft - 100032}
BiosBuildNumber                                         : 
BiosCaption                                             : Hyper-V UEFI Release v4.1
BiosCodeSet                                             : 
BiosCurrentLanguage                                     : 
BiosDescription                                         : Hyper-V UEFI Release v4.1
BiosEmbeddedControllerMajorVersion                      : 255
BiosEmbeddedControllerMinorVersion                      : 255
BiosFirmwareType                                        : Uefi
BiosIdentificationCode                                  : 
BiosInstallableLanguages                                : 
BiosInstallDate                                         : 
BiosLanguageEdition                                     : 
BiosListOfLanguages                                     : 
BiosManufacturer                                        : Microsoft Corporation
BiosName                                                : Hyper-V UEFI Release v4.1
BiosOtherTargetOS                                       : 
BiosPrimaryBIOS                                         : True
BiosReleaseDate                                         : 7/22/2021 3:00:00 AM
BiosSeralNumber                                         : 0000-0017-0080-2864-4095-1836-17
BiosSMBIOSBIOSVersion                                   : Hyper-V UEFI Release v4.1
BiosSMBIOSMajorVersion                                  : 3
BiosSMBIOSMinorVersion                                  : 1
BiosSMBIOSPresent                                       : True
BiosSoftwareElementState                                : Running
BiosStatus                                              : OK
BiosSystemBiosMajorVersion                              : 4
BiosSystemBiosMinorVersion                              : 1
BiosTargetOperatingSystem                               : 0
BiosVersion                                             : VRTUAL - 1
CsAdminPasswordStatus                                   : Unknown
CsAutomaticManagedPagefile                              : False
CsAutomaticResetBootOption                              : True
CsAutomaticResetCapability                              : True
CsBootOptionOnLimit                                     : 
CsBootOptionOnWatchDog                                  : 
CsBootROMSupported                                      : True
CsBootStatus                                            : {0, 0, 0, 127...}
CsBootupState                                           : Normal boot
CsCaption                                               : APPAD1
CsChassisBootupState                                    : Safe
CsChassisSKUNumber                                      : Virtual Machine
CsCurrentTimeZone                                       : 180
CsDaylightInEffect                                      : True
CsDescription                                           : AT/AT COMPATIBLE
CsDNSHostName                                           : APPAD1
CsDomain                                                : adaudit77.lt
CsDomainRole                                            : MemberServer
CsEnableDaylightSavingsTime                             : True
CsFrontPanelResetStatus                                 : Unknown
CsHypervisorPresent                                     : True
CsInfraredSupported                                     : False
CsInitialLoadInfo                                       : 
CsInstallDate                                           : 
CsKeyboardPasswordStatus                                : Unknown
CsLastLoadInfo                                          : 
CsManufacturer                                          : Microsoft Corporation
CsModel                                                 : Virtual Machine
CsName                                                  : APPAD1
CsNetworkAdapters                                       : {Ethernet}
CsNetworkServerModeEnabled                              : True
CsNumberOfLogicalProcessors                             : 4
CsNumberOfProcessors                                    : 1
CsProcessors                                            : {Intel(R) Xeon(R) Platinum 8370C CPU @ 2.80GHz}
CsOEMStringArray                                        : {[MS_VM_CERT/SHA1/9b80ca0d5dd061ec9da4e494f4c3fd1196270c22], 
                                                          00000000000000000000000000000000, To be filled by OEM}
CsPartOfDomain                                          : True
CsPauseAfterReset                                       : -1
CsPCSystemType                                          : Desktop
CsPCSystemTypeEx                                        : Desktop
CsPowerManagementCapabilities                           : 
CsPowerManagementSupported                              : 
CsPowerOnPasswordStatus                                 : Unknown
CsPowerState                                            : Unknown
CsPowerSupplyState                                      : Safe
CsPrimaryOwnerContact                                   : 
CsPrimaryOwnerName                                      : 
CsResetCapability                                       : Other
CsResetCount                                            : -1
CsResetLimit                                            : -1
CsRoles                                                 : {LM_Workstation, LM_Server, NT, Server_NT}
CsStatus                                                : OK
CsSupportContactDescription                             : 
CsSystemFamily                                          : Virtual Machine
CsSystemSKUNumber                                       : None
CsSystemType                                            : x64-based PC
CsThermalState                                          : Safe
CsTotalPhysicalMemory                                   : 17178763264
CsPhyicallyInstalledMemory                              : 
CsUserName                                              : 
CsWakeUpType                                            : PowerSwitch
CsWorkgroup                                             : 
OsName                                                  : Microsoft Windows Server 2019 Datacenter
OsType                                                  : WINNT
OsOperatingSystemSKU                                    : DatacenterServerEdition
OsVersion                                               : 10.0.17763
OsCSDVersion                                            : 
OsBuildNumber                                           : 17763
OsHotFixes                                              : {KB5004335, KB5004424, KB5007206, KB5006754}
OsBootDevice                                            : \Device\HarddiskVolume3
OsSystemDevice                                          : \Device\HarddiskVolume4
OsSystemDirectory                                       : C:\Windows\system32
OsSystemDrive                                           : C:
OsWindowsDirectory                                      : C:\Windows
OsCountryCode                                           : 1
OsCurrentTimeZone                                       : 180
OsLocaleID                                              : 0409
OsLocale                                                : en-US
OsLocalDateTime                                         : 4/27/2022 1:33:41 PM
OsLastBootUpTime                                        : 4/26/2022 4:56:07 PM
OsUptime                                                : 20:37:34.3180218
OsBuildType                                             : Multiprocessor Free
OsCodeSet                                               : 1252
OsDataExecutionPreventionAvailable                      : True
OsDataExecutionPrevention32BitApplications              : True
OsDataExecutionPreventionDrivers                        : True
OsDataExecutionPreventionSupportPolicy                  : OptOut
OsDebug                                                 : False
OsDistributed                                           : False
OsEncryptionLevel                                       : 256
OsForegroundApplicationBoost                            : Maximum
OsTotalVisibleMemorySize                                : 16776136
OsFreePhysicalMemory                                    : 12916640
OsTotalVirtualMemorySize                                : 20184008
OsFreeVirtualMemory                                     : 15958552
OsInUseVirtualMemory                                    : 4225456
OsTotalSwapSpaceSize                                    : 
OsSizeStoredInPagingFiles                               : 3407872
OsFreeSpaceInPagingFiles                                : 3407872
OsPagingFiles                                           : {D:\pagefile.sys}
OsHardwareAbstractionLayer                              : 10.0.17763.2061
OsInstallDate                                           : 11/26/2021 8:35:35 PM
OsManufacturer                                          : Microsoft Corporation
OsMaxNumberOfProcesses                                  : 4294967295
OsMaxProcessMemorySize                                  : 137438953344
OsMuiLanguages                                          : {en-US}
OsNumberOfLicensedUsers                                 : 0
OsNumberOfProcesses                                     : 154
OsNumberOfUsers                                         : 12
OsOrganization                                          : 
OsArchitecture                                          : 64-bit
OsLanguage                                              : en-US
OsProductSuites                                         : {TerminalServices, DatacenterEdition, 
                                                          TerminalServicesSingleSession}
OsOtherTypeDescription                                  : 
OsPAEEnabled                                            : 
OsPortableOperatingSystem                               : False
OsPrimary                                               : True
OsProductType                                           : Server
OsRegisteredUser                                        : 
OsSerialNumber                                          : 00430-00000-00000-AA144
OsServicePackMajorVersion                               : 0
OsServicePackMinorVersion                               : 0
OsStatus                                                : OK
OsSuites                                                : {TerminalServices, DatacenterEdition, 
                                                          TerminalServicesSingleSession}
OsServerLevel                                           : FullServer
KeyboardLayout                                          : en-US
TimeZone                                                : (UTC+02:00) Helsinki, Kyiv, Riga, Sofia, Tallinn, Vilnius
LogonServer                                             : \\DCAD2
PowerPlatformRole                                       : Desktop
HyperVisorPresent                                       : True
HyperVRequirementDataExecutionPreventionAvailable       : 
HyperVRequirementSecondLevelAddressTranslation          : 
HyperVRequirementVirtualizationFirmwareEnabled          : 
HyperVRequirementVMMonitorModeExtensions                : 
DeviceGuardSmartStatus                                  : Off
DeviceGuardRequiredSecurityProperties                   : 
DeviceGuardAvailableSecurityProperties                  : 
DeviceGuardSecurityServicesConfigured                   : 
DeviceGuardSecurityServicesRunning                      : 
DeviceGuardCodeIntegrityPolicyEnforcementStatus         : 
DeviceGuardUserModeCodeIntegrityPolicyEnforcementStatus : 



